<svg width="15" height="15" viewBox="0 0 15 15" fill="none" xmlns="http://www.w3.org/2000/svg">
<path d="M13.4903 2.99509C13.3604 2.99896 13.2371 3.05325 13.1465 3.14646L5.50004 10.7929L2.35356 7.64646C2.30749 7.59847 2.2523 7.56016 2.19124 7.53377C2.13017 7.50737 2.06446 7.49343 1.99794 7.49275C1.93141 7.49208 1.86543 7.50468 1.80384 7.52983C1.74225 7.55497 1.6863 7.59215 1.63926 7.63919C1.59222 7.68623 1.55504 7.74218 1.52989 7.80377C1.50475 7.86536 1.49215 7.93135 1.49282 7.99787C1.4935 8.06439 1.50744 8.1301 1.53384 8.19117C1.56023 8.25223 1.59854 8.30742 1.64653 8.35349L5.14653 11.8535C5.2403 11.9472 5.36746 11.9999 5.50004 11.9999C5.63263 11.9999 5.75979 11.9472 5.85356 11.8535L13.8536 3.85349C13.9258 3.78326 13.9752 3.69284 13.9951 3.59408C14.0151 3.49532 14.0048 3.39283 13.9655 3.30003C13.9263 3.20724 13.8599 3.12847 13.7751 3.07406C13.6903 3.01965 13.591 2.99212 13.4903 2.99509Z" fill="white"/>
</svg>
