<svg width="13" height="7" viewBox="0 0 13 7" fill="none" xmlns="http://www.w3.org/2000/svg">
<path d="M11.4952 0.493059C11.3633 0.496177 11.238 0.551286 11.1465 0.646379L6.50004 5.29286L1.85356 0.646379C1.80696 0.598482 1.75124 0.56041 1.68968 0.534411C1.62812 0.508413 1.56198 0.495016 1.49516 0.495012C1.39569 0.495038 1.29849 0.524728 1.21599 0.580285C1.13348 0.635841 1.06942 0.714741 1.03199 0.806897C0.994564 0.899053 0.985469 1.00028 1.00587 1.09763C1.02627 1.19498 1.07524 1.28404 1.14653 1.35341L6.14653 6.35341C6.2403 6.44714 6.36746 6.4998 6.50004 6.4998C6.63263 6.4998 6.75979 6.44714 6.85356 6.35341L11.8536 1.35341C11.9262 1.28358 11.976 1.19345 11.9965 1.09483C12.017 0.9962 12.0073 0.893674 11.9686 0.80068C11.9298 0.707687 11.8639 0.628562 11.7794 0.573671C11.695 0.51878 11.5959 0.490683 11.4952 0.493059Z" fill="#F2F2F2"/>
</svg>
